﻿{
  "iisSettings": {
    "windowsAuthentication": true,
    "anonymousAuthentication": false,
    "iisExpress": {
      "applicationUrl": "http://localhost:36613",
      "sslPort": 44354
    }
  },
  "profiles": {
    "AirlineMVC": {
      "commandName": "Project",
      "dotnetRunMessages": true,
      "launchBrowser": true,
      "applicationUrl": "https://localhost:7165;http://localhost:5165",
      "environmentVariables": {
        "ASPNETCORE_ENVIRONMENT": "Development"
      }
    },
    "IIS Express": {
      "commandName": "IISExpress",
      "launchBrowser": true,
      "environmentVariables": {
        "ASPNETCORE_ENVIRONMENT": "Development"
      }
    }
  }
}
